* GENERATED BY CHARMM-GUI (http://www.charmm-gui.org) v2.0 on Jun, 20. 2018. JOBID=1529500775
* INPUT GENERATION
* 

DIMENS CHSIZE 3000000 MAXRES 3000000

! Read topology and parameter files
stream toppar.str

! Read the system information
stream step3_pbcsetup.str

! Read PSF
open read unit 10 card name step3_pbcsetup.psf
read psf  unit 10 card xplor

! Read Coordinate
open read unit 10 card name step3_pbcsetup.crd
read coor unit 10 card

system "cp */*.rtf toppar/"
system "cp */*.prm toppar/"

! GROMACS
stream step3_input.gmx.str

stop