226
Atoms. This file was generated from report_vcsgc.py
1 25.9377 23.9063 27.9688 1
1 27.9688 27.9688 25.9375 2
1 23.9063 27.9688 34.0618 3
1 30.0003 30.0003 38.1256 4
1 29.9997 32.0307 23.9060 5
1 32.0309 36.0934 25.9380 6
1 32.0312 32.0312 30.0001 7
1 29.9997 21.8745 25.9377 8
1 27.9688 25.9375 27.9688 9
1 32.0306 27.9687 21.8743 10
1 32.0307 29.9997 23.9060 11
1 32.0308 23.9062 25.9376 12
1 32.0309 27.9688 25.9375 13
1 32.0311 30.0000 27.9689 14
1 32.0311 34.0623 27.9691 15
1 32.0311 38.1254 27.9694 16
1 36.0939 32.0312 30.0003 17
1 29.9998 23.9060 27.9688 18
1 25.9375 27.9688 27.9688 19
1 27.9688 23.9063 34.0618 20
1 32.0308 25.9376 23.9062 21
1 34.0615 29.9995 21.8746 22
1 32.0306 21.8743 27.9687 23
1 32.0309 25.9375 27.9688 24
1 34.0621 29.9999 25.9377 25
1 34.0620 34.0620 25.9380 26
1 34.0625 32.0313 32.0313 27
1 32.0313 36.0938 34.0624 28
1 32.0314 40.1573 34.0622 29
1 32.0313 32.0313 38.1256 30
1 27.9688 29.9998 23.9060 31
1 29.9999 25.9376 25.9376 32
1 25.9377 25.9377 34.0620 33
1 36.0931 29.9997 23.9066 34
1 34.0620 25.9377 25.9377 35
1 36.0937 30.0001 27.9691 36
1 32.0307 23.9060 29.9997 37
1 32.0311 27.9689 30.0000 38
1 32.0312 30.0001 32.0312 39
1 32.0307 23.9064 34.0618 40
1 32.0311 27.9691 34.0623 41
1 32.0312 30.0003 36.0939 42
1 40.1575 32.0312 30.0004 43
1 32.0313 34.0624 36.0938 44
1 32.0314 38.1251 36.0934 45
1 36.0934 32.0314 38.1251 46
1 29.9996 29.9996 21.8742 47
1 29.9999 27.9688 27.9688 48
1 21.8742 29.9996 29.9996 49
1 27.9689 27.9689 34.0622 50
1 36.0934 27.9689 25.9379 51
1 38.1250 30.0000 25.9382 52
1 32.0304 21.8744 32.0304 53
1 32.0309 25.9377 32.0309 54
1 34.0624 30.0001 30.0001 55
1 32.0309 25.9380 36.0934 56
1 34.0624 30.0003 34.0624 57
1 32.0304 32.0304 21.8744 58
1 36.0936 34.0622 27.9693 59
1 38.1256 32.0313 32.0313 60
1 34.0624 34.0624 34.0624 61
1 34.0623 38.1253 34.0623 62
1 34.0622 32.0314 40.1573 63
1 23.9060 29.9997 32.0307 64
1 29.9995 21.8746 34.0615 65
1 27.9689 25.9379 36.0934 66
1 36.0934 25.9379 27.9689 67
1 40.1572 30.0002 27.9694 68
1 34.0615 21.8746 29.9995 69
1 34.0621 25.9377 29.9999 70
1 36.0939 30.0003 32.0312 71
1 34.0620 25.9380 34.0620 72
1 36.0936 30.0004 36.0936 73
1 34.0622 36.0936 27.9693 74
1 36.0936 36.0936 34.0624 75
1 25.9375 29.9999 29.9999 76
1 29.9997 23.9066 36.0931 77
1 25.9379 27.9689 36.0934 78
1 34.0618 27.9688 23.9063 79
1 34.0618 23.9063 27.9688 80
1 34.0622 27.9689 27.9689 81
1 36.0931 23.9066 29.9997 82
1 36.0937 27.9691 30.0001 83
1 38.1256 30.0003 30.0003 84
1 36.0936 27.9693 34.0622 85
1 38.1254 30.0004 34.0622 86
1 34.0618 32.0307 23.9064 87
1 36.0936 34.0624 36.0936 88
1 27.9689 30.0000 32.0311 89
1 29.9999 25.9377 34.0621 90
1 36.0934 25.9380 32.0309 91
1 40.1575 30.0004 32.0312 92
1 34.0624 36.0936 36.0936 93
1 30.0000 30.0000 30.0000 94
1 30.0001 27.9691 36.0937 95
1 34.0618 23.9064 32.0307 96
1 34.0623 27.9691 32.0311 97
1 34.0622 27.9693 36.0936 98
1 38.1253 34.0623 34.0623 99
1 27.9692 27.9692 38.1252 100
1 38.1250 25.9382 30.0000 101
1 38.1252 27.9692 27.9692 102
1 40.1572 27.9694 30.0002 103
1 23.9064 23.9064 29.9998 104
1 21.8745 25.9377 29.9997 105
1 30.0000 25.9382 38.1250 106
1 38.1254 27.9694 32.0311 107
1 27.9687 27.9687 21.8744 108
1 23.9060 27.9688 29.9998 109
1 30.0002 27.9694 40.1572 110
1 27.9688 25.9377 23.9063 111
1 25.9377 21.8745 29.9997 112
1 23.9062 25.9376 32.0308 113
1 32.0309 32.0309 25.9377 114
1 32.0312 36.0939 30.0003 115
1 32.0312 40.1575 30.0004 116
1 29.9998 23.9064 23.9064 117
1 25.9377 27.9688 23.9063 118
1 27.9688 23.9060 29.9998 119
1 21.8743 27.9687 32.0306 120
1 36.0934 32.0309 25.9380 121
1 32.0313 34.0625 32.0313 122
1 32.0313 38.1256 32.0313 123
1 32.0314 36.0934 38.1251 124
1 29.9997 25.9377 21.8745 125
1 23.9060 29.9998 27.9688 126
1 27.9687 21.8743 32.0306 127
1 25.9376 25.9376 29.9999 128
1 34.0623 32.0311 27.9691 129
1 34.0624 34.0624 30.0003 130
1 34.0622 38.1254 30.0004 131
1 32.0313 32.0313 34.0625 132
1 32.0314 34.0622 40.1573 133
1 29.9998 27.9688 23.9060 134
1 25.9376 29.9999 25.9376 135
1 25.9376 23.9062 32.0308 136
1 27.9688 27.9688 29.9999 137
1 23.9064 34.0618 32.0307 138
1 21.8750 34.0614 34.0614 139
1 36.0936 36.0936 30.0004 140
1 36.0938 32.0313 34.0624 141
1 34.0623 34.0623 38.1253 142
1 27.9688 29.9999 27.9688 143
1 29.9996 21.8742 29.9996 144
1 27.9688 25.9375 32.0309 145
1 23.9060 32.0307 29.9997 146
1 23.9069 36.0929 34.0616 147
1 38.1254 32.0311 27.9694 148
1 36.0938 34.0624 32.0313 149
1 36.0934 38.1251 32.0314 150
1 34.0624 32.0313 36.0938 151
1 29.9999 29.9999 25.9375 152
1 29.9997 23.9060 32.0307 153
1 25.9375 27.9688 32.0309 154
1 21.8746 29.9995 34.0615 155
1 21.8744 32.0304 32.0304 156
1 25.9377 34.0621 29.9999 157
1 23.9069 34.0616 36.0929 158
1 23.9071 32.0306 38.1244 159
1 25.9384 34.0618 38.1248 160
1 32.0312 30.0004 40.1575 161
1 32.0307 34.0618 23.9064 162
1 34.0624 36.0938 32.0313 163
1 34.0622 40.1573 32.0314 164
1 40.1573 32.0314 34.0622 165
1 29.9999 25.9375 29.9999 166
1 23.9066 29.9997 36.0931 167
1 27.9688 32.0309 25.9375 168
1 27.9689 32.0311 30.0000 169
1 27.9691 36.0937 30.0001 170
1 23.9064 32.0307 34.0618 171
1 27.9695 36.0932 38.1249 172
1 32.0311 27.9694 38.1254 173
1 34.0622 30.0004 38.1254 174
1 38.1254 34.0622 30.0004 175
1 38.1251 32.0314 36.0934 176
1 30.0000 27.9689 32.0311 177
1 25.9377 29.9999 34.0621 178
1 25.9375 32.0309 27.9688 179
1 27.9689 34.0622 27.9689 180
1 25.9377 32.0309 32.0309 181
1 27.9691 34.0623 32.0311 182
1 21.8751 32.0304 36.0925 183
1 25.9380 34.0620 34.0620 184
1 27.9694 32.0311 38.1254 185
1 27.9695 34.0620 40.1570 186
1 27.9691 30.0001 36.0937 187
1 30.0000 32.0311 27.9689 188
1 30.0001 32.0312 32.0312 189
1 25.9380 36.0934 32.0309 190
1 27.9694 38.1254 32.0311 191
1 27.9691 32.0311 34.0623 192
1 27.9693 36.0936 34.0622 193
1 25.9384 38.1248 34.0618 194
1 25.9385 32.0309 40.1568 195
1 40.1573 34.0622 32.0314 196
1 30.0001 30.0001 34.0624 197
1 29.9999 34.0621 25.9377 198
1 30.0001 34.0624 30.0001 199
1 25.9380 32.0309 36.0934 200
1 27.9693 34.0622 36.0936 201
1 27.9695 40.1570 34.0620 202
1 30.0004 32.0312 40.1575 203
1 30.0004 34.0622 38.1254 204
1 30.0006 38.1246 38.1246 205
1 38.1251 36.0934 32.0314 206
1 23.9063 27.9688 25.9377 207
1 30.0001 36.0937 27.9691 208
1 30.0003 36.0939 32.0312 209
1 30.0003 38.1256 30.0003 210
1 30.0003 32.0312 36.0939 211
1 25.9384 36.0931 36.0931 212
1 27.9695 38.1249 36.0932 213
1 30.0006 36.0932 40.1568 214
1 23.9063 25.9377 27.9688 215
1 30.0004 40.1575 32.0312 216
1 30.0003 34.0624 34.0624 217
1 27.9688 23.9063 25.9377 218
1 21.8744 27.9687 27.9687 219
1 25.9382 30.0000 38.1250 220
1 30.0004 36.0936 36.0936 221
1 30.0004 38.1254 34.0622 222
1 27.9687 21.8744 27.9687 223
1 25.9377 25.9377 25.9377 224
1 27.9694 30.0002 40.1572 225
1 30.0006 40.1568 36.0932 226
